RTL/RST_SYNC/rst_sync_tb.vcd
$date
	Wed Sep  3 17:43:41 2025
$end
$version
	QuestaSim Version 2021.1
$end
$timescale
	1ps
$end

$scope module RST_SYNC_tb $end
$var parameter 32 ! num_stages $end
$var parameter 32 " CLK_PERIOD $end
$var reg 1 # clk $end
$var reg 1 $ rst $end
$var wire 1 % sync_rst $end

$scope task initialize $end
$upscope $end

$scope task reset $end
$upscope $end

$scope module dut $end
$var parameter 32 & num_stages $end
$var wire 1 ' rst $end
$var wire 1 ( clk $end
$var reg 1 ) sync_rst $end
$var reg 2 * out [1:0] $end
$var integer 32 + i $end
$upscope $end
$upscope $end
$enddefinitions $end
#0
$dumpvars
0#
1$
x)
bx *
b10 !
b1010 "
b10 &
bx +
x%
0(
1'
$end
#5000
1#
1(
b1 +
b10 +
bx1 *
#10000
0$
0#
0'
0(
b0 *
0)
0%
#15000
1#
1(
#20000
1$
0#
1'
0(
#25000
1#
1(
b1 +
b10 +
b1 *
#30000
0#
0(
#35000
1#
1(
b1 +
b10 +
b11 *
#40000
0#
0(
#45000
1#
1(
b1 +
b10 +
1)
1%
#50000
0#
0(
#55000
1#
1(
b1 +
b10 +
#60000
0$
0#
0'
0(
b0 *
0)
0%
#65000
1#
1(
#70000
1$
0#
1'
0(
#75000
1#
1(
b1 +
b10 +
b1 *
#80000
0#
0(
#85000
1#
1(
b1 +
b10 +
b11 *
